0;1 - 2 - 3 - 2 - 10
1;1 - 4 - 5 - 2 - 3 - 4 - 5 - 4 - 5 - 6 - 7 - 2 - 10
2;1 - 6 - 7 - 4 - 5 - 8 - 9 - 2 - 3 - 6 - 7 - 6 - 7 - 8 - 9 - 4 - 5 - 2 - 10
3;1 - 8 - 9 - 6 - 7 - 2 - 3 - 8 - 9 - 8 - 9 - 2 - 10
